EESchema Schematic File Version 4
LIBS:3843_Preamp_PSU-cache
EELAYER 30 0
EELAYER END
$Descr A3 16535 11693
encoding utf-8
Sheet 1 1
Title ""
Date ""
Rev ""
Comp ""
Comment1 ""
Comment2 ""
Comment3 ""
Comment4 ""
$EndDescr
$Comp
L Connector:Conn_01x02_Male J1
U 1 1 5CEFC243
P 3700 2500
F 0 "J1" H 3808 2681 50  0000 C CNN
F 1 "AC" H 3808 2590 50  0000 C CNN
F 2 "TerminalBlock:TerminalBlock_bornier-2_P5.08mm" H 3700 2500 50  0001 C CNN
F 3 "~" H 3700 2500 50  0001 C CNN
	1    3700 2500
	1    0    0    -1  
$EndComp
$Comp
L Device:D_Bridge_+-AA D1
U 1 1 5CEFCDFF
P 4550 2550
F 0 "D1" H 4800 2750 50  0000 L CNN
F 1 "D_Bridge_+AA-" H 4894 2505 50  0001 L CNN
F 2 "Diode_THT:Diode_Bridge_DIP-4_W7.62mm_P5.08mm" H 4550 2550 50  0001 C CNN
F 3 "~" H 4550 2550 50  0001 C CNN
	1    4550 2550
	1    0    0    -1  
$EndComp
Wire Wire Line
	4550 2150 4550 2250
Wire Wire Line
	4550 2950 4550 2850
$Comp
L Device:CP C5
U 1 1 5CEFE5E2
P 5200 2850
F 0 "C5" H 5318 2896 50  0000 L CNN
F 1 "47u/400V" H 5318 2805 50  0000 L CNN
F 2 "Capacitor_THT:CP_Radial_D22.0mm_P10.00mm_SnapIn" H 5238 2700 50  0001 C CNN
F 3 "~" H 5200 2850 50  0001 C CNN
	1    5200 2850
	1    0    0    -1  
$EndComp
$Comp
L power:GND #PWR0101
U 1 1 5CEFEE77
P 4200 2700
F 0 "#PWR0101" H 4200 2450 50  0001 C CNN
F 1 "GND" H 4205 2527 50  0000 C CNN
F 2 "" H 4200 2700 50  0001 C CNN
F 3 "" H 4200 2700 50  0001 C CNN
	1    4200 2700
	1    0    0    -1  
$EndComp
Wire Wire Line
	4200 2700 4200 2550
Wire Wire Line
	4200 2550 4250 2550
Wire Wire Line
	4850 2550 5200 2550
Wire Wire Line
	5200 2550 5200 2700
$Comp
L power:GND #PWR0102
U 1 1 5CEFF64C
P 5200 3000
F 0 "#PWR0102" H 5200 2750 50  0001 C CNN
F 1 "GND" H 5205 2827 50  0000 C CNN
F 2 "" H 5200 3000 50  0001 C CNN
F 3 "" H 5200 3000 50  0001 C CNN
	1    5200 3000
	1    0    0    -1  
$EndComp
$Comp
L Device:R R3
U 1 1 5CEFFA36
P 5900 2850
F 0 "R3" H 5970 2896 50  0000 L CNN
F 1 "56k/3W" H 5970 2805 50  0000 L CNN
F 2 "Resistor_THT:R_Axial_DIN0309_L9.0mm_D3.2mm_P12.70mm_Horizontal" V 5830 2850 50  0001 C CNN
F 3 "~" H 5900 2850 50  0001 C CNN
	1    5900 2850
	1    0    0    -1  
$EndComp
Wire Wire Line
	5900 2700 5900 2550
Wire Wire Line
	5900 2550 5200 2550
Connection ~ 5200 2550
Wire Wire Line
	5900 3200 5900 3000
$Comp
L Device:D_Schottky D4
U 1 1 5CF00E9D
P 6600 3200
F 0 "D4" H 6600 3416 50  0000 C CNN
F 1 "D_Schottky" H 6600 3325 50  0001 C CNN
F 2 "Diode_SMD:D_SMA" H 6600 3200 50  0001 C CNN
F 3 "~" H 6600 3200 50  0001 C CNN
	1    6600 3200
	1    0    0    -1  
$EndComp
$Comp
L Device:R R4
U 1 1 5CF0151E
P 7050 3200
F 0 "R4" V 6843 3200 50  0000 C CNN
F 1 "22" V 6934 3200 50  0000 C CNN
F 2 "Resistor_SMD:R_1206_3216Metric_Pad1.42x1.75mm_HandSolder" V 6980 3200 50  0001 C CNN
F 3 "~" H 7050 3200 50  0001 C CNN
	1    7050 3200
	0    1    1    0   
$EndComp
Wire Wire Line
	6900 3200 6750 3200
$Comp
L Device:R R11
U 1 1 5CF0C190
P 8600 5900
F 0 "R11" H 8530 5854 50  0000 R CNN
F 1 "0.47" H 8530 5945 50  0000 R CNN
F 2 "Resistor_THT:R_Axial_DIN0309_L9.0mm_D3.2mm_P2.54mm_Vertical" V 8530 5900 50  0001 C CNN
F 3 "~" H 8600 5900 50  0001 C CNN
	1    8600 5900
	-1   0    0    1   
$EndComp
$Comp
L power:GND #PWR0108
U 1 1 5CF0CA52
P 8600 6150
F 0 "#PWR0108" H 8600 5900 50  0001 C CNN
F 1 "GND" H 8605 5977 50  0000 C CNN
F 2 "" H 8600 6150 50  0001 C CNN
F 3 "" H 8600 6150 50  0001 C CNN
	1    8600 6150
	1    0    0    -1  
$EndComp
Wire Wire Line
	8600 6150 8600 6050
Connection ~ 5900 2550
$Comp
L Device:D_Schottky D6
U 1 1 5CF2B93D
P 8300 2000
F 0 "D6" H 8300 2216 50  0000 C CNN
F 1 "UF4007" H 8300 2125 50  0000 C CNN
F 2 "Diode_THT:D_T-1_P10.16mm_Horizontal" H 8300 2000 50  0001 C CNN
F 3 "~" H 8300 2000 50  0001 C CNN
	1    8300 2000
	1    0    0    -1  
$EndComp
$Comp
L Connector:Conn_01x07_Male J2
U 1 1 5CF370DE
P 9500 2850
F 0 "J2" H 9550 3250 50  0000 R CNN
F 1 "PRI" H 9700 3300 50  0000 R CNN
F 2 "TerminalBlock_Altech:Altech_AK300_1x07_P5.00mm_45-Degree" H 9500 2850 50  0001 C CNN
F 3 "~" H 9500 2850 50  0001 C CNN
	1    9500 2850
	-1   0    0    -1  
$EndComp
$Comp
L power:GND #PWR0113
U 1 1 5CF3A7E0
P 9150 3300
F 0 "#PWR0113" H 9150 3050 50  0001 C CNN
F 1 "GND" H 9155 3127 50  0000 C CNN
F 2 "" H 9150 3300 50  0001 C CNN
F 3 "" H 9150 3300 50  0001 C CNN
	1    9150 3300
	1    0    0    -1  
$EndComp
Wire Wire Line
	7350 3200 7200 3200
$Comp
L Connector:Conn_01x07_Male J3
U 1 1 5CF3CE13
P 9600 2850
F 0 "J3" H 9708 3231 50  0000 C CNN
F 1 "SEC" H 9700 3350 50  0000 C CNN
F 2 "TerminalBlock_Altech:Altech_AK300_1x07_P5.00mm_45-Degree" H 9600 2850 50  0001 C CNN
F 3 "~" H 9600 2850 50  0001 C CNN
	1    9600 2850
	1    0    0    -1  
$EndComp
$Comp
L power:GNDREF #PWR0114
U 1 1 5CF42274
P 10100 3150
F 0 "#PWR0114" H 10100 2900 50  0001 C CNN
F 1 "GNDREF" H 10105 2977 50  0000 C CNN
F 2 "" H 10100 3150 50  0001 C CNN
F 3 "" H 10100 3150 50  0001 C CNN
	1    10100 3150
	1    0    0    -1  
$EndComp
Wire Wire Line
	10100 3150 10100 2750
$Comp
L Device:D_Schottky D7
U 1 1 5CF44EA2
P 10500 2550
F 0 "D7" H 10500 2426 50  0000 C CNN
F 1 "D_Schottky" H 10500 2425 50  0001 C CNN
F 2 "Diode_THT:D_T-1_P10.16mm_Horizontal" H 10500 2550 50  0001 C CNN
F 3 "~" H 10500 2550 50  0001 C CNN
	1    10500 2550
	-1   0    0    1   
$EndComp
$Comp
L Device:D_Schottky D8
U 1 1 5CF456C7
P 10500 2950
F 0 "D8" H 10500 3074 50  0000 C CNN
F 1 "D_Schottky" H 10500 2825 50  0001 C CNN
F 2 "Diode_THT:D_T-1_P10.16mm_Horizontal" H 10500 2950 50  0001 C CNN
F 3 "~" H 10500 2950 50  0001 C CNN
	1    10500 2950
	1    0    0    -1  
$EndComp
Wire Wire Line
	10350 2550 9800 2550
$Comp
L Device:CP_Small C11
U 1 1 5CF49F56
P 10850 2550
F 0 "C11" H 10938 2596 50  0000 L CNN
F 1 "1000u/25V" H 10938 2505 50  0000 L CNN
F 2 "Capacitor_THT:CP_Radial_D10.0mm_P5.00mm" H 10850 2550 50  0001 C CNN
F 3 "~" H 10850 2550 50  0001 C CNN
	1    10850 2550
	1    0    0    -1  
$EndComp
$Comp
L Device:CP_Small C13
U 1 1 5CF4AA0E
P 13850 2550
F 0 "C13" H 13938 2596 50  0000 L CNN
F 1 "1000u/25V" H 13938 2505 50  0000 L CNN
F 2 "Capacitor_THT:CP_Radial_D10.0mm_P5.00mm" H 13850 2550 50  0001 C CNN
F 3 "~" H 13850 2550 50  0001 C CNN
	1    13850 2550
	1    0    0    -1  
$EndComp
$Comp
L Device:CP_Small C12
U 1 1 5CF4ACA4
P 10850 2950
F 0 "C12" H 10938 2996 50  0000 L CNN
F 1 "1000u/25V" H 10938 2905 50  0000 L CNN
F 2 "Capacitor_THT:CP_Radial_D10.0mm_P5.00mm" H 10850 2950 50  0001 C CNN
F 3 "~" H 10850 2950 50  0001 C CNN
	1    10850 2950
	1    0    0    -1  
$EndComp
$Comp
L Device:CP_Small C14
U 1 1 5CF4B208
P 13850 2950
F 0 "C14" H 13938 2996 50  0000 L CNN
F 1 "1000u/25V" H 13938 2905 50  0000 L CNN
F 2 "Capacitor_THT:CP_Radial_D10.0mm_P5.00mm" H 13850 2950 50  0001 C CNN
F 3 "~" H 13850 2950 50  0001 C CNN
	1    13850 2950
	1    0    0    -1  
$EndComp
Wire Wire Line
	10650 2550 10650 2350
Wire Wire Line
	10650 2350 10850 2350
Wire Wire Line
	13850 2350 13850 2450
Wire Wire Line
	10850 2450 10850 2350
Wire Wire Line
	10650 2950 10650 3150
Wire Wire Line
	10650 3150 10850 3150
Wire Wire Line
	10850 3150 10850 3050
Wire Wire Line
	13850 3150 13850 3050
Wire Wire Line
	10850 2850 10850 2750
Wire Wire Line
	10100 2750 10850 2750
Connection ~ 10850 2750
Wire Wire Line
	10850 2750 10850 2650
Wire Wire Line
	13850 2650 13850 2750
$Comp
L power:GNDREF #PWR0115
U 1 1 5CF73F7E
P 13500 2850
F 0 "#PWR0115" H 13500 2600 50  0001 C CNN
F 1 "GNDREF" H 13505 2677 50  0000 C CNN
F 2 "" H 13500 2850 50  0001 C CNN
F 3 "" H 13500 2850 50  0001 C CNN
	1    13500 2850
	1    0    0    -1  
$EndComp
Wire Wire Line
	13500 2850 13500 2750
Wire Wire Line
	13500 2750 13850 2750
Connection ~ 13850 2750
Wire Wire Line
	13850 2750 13850 2850
$Comp
L Connector:Conn_01x03_Male J4
U 1 1 5CF776FE
P 14800 2750
F 0 "J4" H 14772 2682 50  0000 R CNN
F 1 "OUT" H 14772 2773 50  0000 R CNN
F 2 "Connector_Molex:Molex_KK-254_AE-6410-03A_1x03_P2.54mm_Vertical" H 14800 2750 50  0001 C CNN
F 3 "~" H 14800 2750 50  0001 C CNN
	1    14800 2750
	-1   0    0    1   
$EndComp
Wire Wire Line
	14600 2650 14500 2650
Wire Wire Line
	14500 2650 14500 2350
Wire Wire Line
	14500 2350 13850 2350
Wire Wire Line
	14600 2850 14500 2850
Wire Wire Line
	14500 2850 14500 3150
Wire Wire Line
	14500 3150 13850 3150
Wire Wire Line
	13850 2750 14600 2750
Wire Wire Line
	5900 2550 7250 2550
Wire Wire Line
	7250 2000 7250 2550
Wire Wire Line
	4550 2150 3900 2150
Wire Wire Line
	3900 2150 3900 2500
Wire Wire Line
	4550 2950 3900 2950
Wire Wire Line
	3900 2600 3900 2950
Wire Wire Line
	9800 2650 10100 2650
Wire Wire Line
	10100 2650 10100 2750
Connection ~ 10100 2750
Wire Wire Line
	9800 2750 10000 2750
Wire Wire Line
	10000 2750 10000 2950
Wire Wire Line
	10000 2950 10350 2950
Wire Wire Line
	8600 2650 8600 4650
Wire Wire Line
	8600 2000 8600 2650
Connection ~ 8600 2650
Wire Wire Line
	9300 2650 8600 2650
Connection ~ 7250 2550
Wire Wire Line
	7250 2550 9300 2550
Wire Wire Line
	9800 3050 9950 3050
Wire Wire Line
	9950 3050 9950 3700
$Comp
L Connector:Conn_01x02_Male J5
U 1 1 5CF59D77
P 13900 3800
F 0 "J5" H 13872 3682 50  0000 R CNN
F 1 "5V" H 13872 3773 50  0000 R CNN
F 2 "Connector_Molex:Molex_KK-254_AE-6410-02A_1x02_P2.54mm_Vertical" H 13900 3800 50  0001 C CNN
F 3 "~" H 13900 3800 50  0001 C CNN
	1    13900 3800
	-1   0    0    1   
$EndComp
Wire Wire Line
	13700 4100 13700 3800
Wire Wire Line
	9150 3300 9150 3150
Wire Wire Line
	9150 3150 9300 3150
Wire Wire Line
	9300 3050 7350 3050
Wire Wire Line
	7350 3050 7350 3200
Wire Wire Line
	8450 2000 8600 2000
$Comp
L Device:C C2
U 1 1 5D1250B1
P 7650 2000
F 0 "C2" V 7398 2000 50  0000 C CNN
F 1 "47n/400V" V 7489 2000 50  0000 C CNN
F 2 "Capacitor_THT:C_Rect_L16.5mm_W4.7mm_P15.00mm_MKT" H 7688 1850 50  0001 C CNN
F 3 "~" H 7650 2000 50  0001 C CNN
	1    7650 2000
	0    1    1    0   
$EndComp
$Comp
L Device:R R10
U 1 1 5D125C23
P 7650 1550
F 0 "R10" V 7443 1550 50  0000 C CNN
F 1 "10k/1W" V 7534 1550 50  0000 C CNN
F 2 "Resistor_THT:R_Axial_DIN0411_L9.9mm_D3.6mm_P12.70mm_Horizontal" V 7580 1550 50  0001 C CNN
F 3 "~" H 7650 1550 50  0001 C CNN
	1    7650 1550
	0    1    1    0   
$EndComp
Wire Wire Line
	7500 1550 7250 1550
Wire Wire Line
	7250 1550 7250 2000
Connection ~ 7250 2000
Wire Wire Line
	7250 2000 7500 2000
Wire Wire Line
	7800 1550 8050 1550
Wire Wire Line
	8050 1550 8050 2000
Wire Wire Line
	8050 2000 8150 2000
Wire Wire Line
	8050 2000 7800 2000
Connection ~ 8050 2000
Connection ~ 13850 2350
Connection ~ 13850 3150
$Comp
L Device:LED D10
U 1 1 5D171908
P 12500 4800
F 0 "D10" V 12539 4683 50  0000 R CNN
F 1 "LED" V 12448 4683 50  0000 R CNN
F 2 "LED_THT:LED_D5.0mm" H 12500 4800 50  0001 C CNN
F 3 "~" H 12500 4800 50  0001 C CNN
	1    12500 4800
	0    -1   -1   0   
$EndComp
$Comp
L Device:R R14
U 1 1 5D172601
P 12500 4500
F 0 "R14" V 12293 4500 50  0000 C CNN
F 1 "100" V 12384 4500 50  0000 C CNN
F 2 "Resistor_THT:R_Axial_DIN0207_L6.3mm_D2.5mm_P10.16mm_Horizontal" V 12430 4500 50  0001 C CNN
F 3 "~" H 12500 4500 50  0001 C CNN
	1    12500 4500
	-1   0    0    1   
$EndComp
Wire Wire Line
	11850 3800 11850 3700
Wire Wire Line
	11850 3700 12500 3700
Wire Wire Line
	11850 4000 11850 4100
Wire Wire Line
	11850 4100 13700 4100
Wire Wire Line
	12500 4350 12500 3700
Connection ~ 12500 3700
Wire Wire Line
	12500 3700 13000 3700
$Comp
L My_Library:384X_Board J6
U 1 1 5D5DC8D2
P 6200 4700
F 0 "J6" H 6238 5175 50  0000 C CNN
F 1 "384X_Board" H 6238 5084 50  0000 C CNN
F 2 "Connector_PinSocket_2.54mm:PinSocket_1x06_P2.54mm_Vertical" H 6400 4750 50  0001 C CNN
F 3 "" H 6400 4750 50  0001 C CNN
	1    6200 4700
	-1   0    0    -1  
$EndComp
$Comp
L Isolator:PC817 U2
U 1 1 5CF1B983
P 8600 6950
F 0 "U2" H 8600 7275 50  0000 C CNN
F 1 "PC817" H 8600 7184 50  0000 C CNN
F 2 "Package_DIP:DIP-4_W7.62mm" H 8400 6750 50  0001 L CIN
F 3 "http://www.soselectronic.cz/a_info/resource/d/pc817.pdf" H 8600 6950 50  0001 L CNN
	1    8600 6950
	-1   0    0    -1  
$EndComp
$Comp
L Device:Q_NMOS_GDS Q1
U 1 1 5CF0B386
P 8500 4850
F 0 "Q1" H 8706 4896 50  0000 L CNN
F 1 "IRF840" H 8706 4805 50  0000 L CNN
F 2 "Package_TO_SOT_THT:TO-220-3_Vertical" H 8700 4950 50  0001 C CNN
F 3 "~" H 8500 4850 50  0001 C CNN
	1    8500 4850
	1    0    0    -1  
$EndComp
Wire Wire Line
	8600 5050 8600 5500
Wire Wire Line
	5900 3200 6400 3200
$Comp
L power:GND #PWR0103
U 1 1 5D60D104
P 6400 5050
F 0 "#PWR0103" H 6400 4800 50  0001 C CNN
F 1 "GND" H 6405 4877 50  0000 C CNN
F 2 "" H 6400 5050 50  0001 C CNN
F 3 "" H 6400 5050 50  0001 C CNN
	1    6400 5050
	1    0    0    -1  
$EndComp
Wire Wire Line
	6400 5050 6400 4950
Wire Wire Line
	6400 4950 6300 4950
Wire Wire Line
	6300 4850 8300 4850
Wire Wire Line
	8600 5500 6900 5500
Wire Wire Line
	6900 5500 6900 4750
Wire Wire Line
	6900 4750 6300 4750
Connection ~ 8600 5500
Wire Wire Line
	8600 5500 8600 5750
Wire Wire Line
	6300 4650 7050 4650
Wire Wire Line
	7050 4650 7050 6850
Wire Wire Line
	7050 6850 8300 6850
Wire Wire Line
	6300 4550 7150 4550
Wire Wire Line
	7150 4550 7150 7050
Wire Wire Line
	7150 7050 8300 7050
Wire Wire Line
	6300 4450 6400 4450
Wire Wire Line
	6400 4450 6400 3200
Connection ~ 6400 3200
Wire Wire Line
	6400 3200 6450 3200
$Comp
L pspice:INDUCTOR L1
U 1 1 5D62BC86
P 11100 3700
F 0 "L1" H 11100 3915 50  0000 C CNN
F 1 "INDUCTOR" H 11100 3824 50  0000 C CNN
F 2 "" H 11100 3700 50  0001 C CNN
F 3 "~" H 11100 3700 50  0001 C CNN
	1    11100 3700
	1    0    0    -1  
$EndComp
Wire Wire Line
	11350 3700 11850 3700
Connection ~ 11850 3700
$Comp
L Device:L_Core_Ferrite_Coupled L2
U 1 1 5D63AFDA
P 11950 2750
F 0 "L2" H 11950 2939 50  0000 C CNN
F 1 "L_Core_Ferrite_Coupled" H 11950 2940 50  0001 C CNN
F 2 "" H 11950 2750 50  0001 C CNN
F 3 "~" H 11950 2750 50  0001 C CNN
	1    11950 2750
	1    0    0    -1  
$EndComp
Wire Wire Line
	11750 2650 11550 2650
Wire Wire Line
	11550 2650 11550 2350
Wire Wire Line
	11550 2350 10850 2350
Connection ~ 10850 2350
Wire Wire Line
	11750 2850 11550 2850
Wire Wire Line
	11550 2850 11550 3150
Wire Wire Line
	11550 3150 10850 3150
Connection ~ 10850 3150
Wire Wire Line
	12150 2650 12400 2650
Wire Wire Line
	12400 2650 12400 2350
Wire Wire Line
	12400 2350 13850 2350
Wire Wire Line
	12400 3150 13850 3150
Wire Wire Line
	12400 3150 12400 2850
Wire Wire Line
	12400 2850 12150 2850
Text Notes 7500 1700 0    50   ~ 0
OR TVS
$Comp
L power:GNDREF #PWR0119
U 1 1 5D12634A
P 10350 7850
F 0 "#PWR0119" H 10350 7600 50  0001 C CNN
F 1 "GNDREF" H 10355 7677 50  0000 C CNN
F 2 "" H 10350 7850 50  0001 C CNN
F 3 "" H 10350 7850 50  0001 C CNN
	1    10350 7850
	1    0    0    -1  
$EndComp
$Comp
L Device:R R12
U 1 1 5D19AA43
P 10350 7700
F 0 "R12" H 10420 7746 50  0000 L CNN
F 1 "1k" H 10420 7655 50  0000 L CNN
F 2 "Resistor_THT:R_Axial_DIN0207_L6.3mm_D2.5mm_P10.16mm_Horizontal" V 10280 7700 50  0001 C CNN
F 3 "~" H 10350 7700 50  0001 C CNN
	1    10350 7700
	1    0    0    -1  
$EndComp
$Comp
L Reference_Voltage:TL431LP U1
U 1 1 5D6690C0
P 9350 7350
F 0 "U1" V 9396 7280 50  0000 R CNN
F 1 "TL431LP" V 9305 7280 50  0000 R CNN
F 2 "Package_TO_SOT_THT:TO-92_Inline" H 9350 7200 50  0001 C CIN
F 3 "http://www.ti.com/lit/ds/symlink/tl431.pdf" H 9350 7350 50  0001 C CIN
	1    9350 7350
	0    1    -1   0   
$EndComp
Wire Wire Line
	10350 7550 10350 7350
$Comp
L Device:R R5
U 1 1 5D678B61
P 9600 7050
F 0 "R5" V 9393 7050 50  0000 C CNN
F 1 "100k" V 9484 7050 50  0000 C CNN
F 2 "" V 9530 7050 50  0001 C CNN
F 3 "~" H 9600 7050 50  0001 C CNN
	1    9600 7050
	0    1    1    0   
$EndComp
$Comp
L Device:C C3
U 1 1 5D67DEDF
P 10000 7050
F 0 "C3" V 9748 7050 50  0000 C CNN
F 1 "10n" V 9839 7050 50  0000 C CNN
F 2 "Capacitor_THT:C_Rect_L7.0mm_W2.0mm_P5.00mm" H 10038 6900 50  0001 C CNN
F 3 "~" H 10000 7050 50  0001 C CNN
	1    10000 7050
	0    1    1    0   
$EndComp
Wire Wire Line
	9450 7350 10350 7350
$Comp
L Device:R R6
U 1 1 5D686ED3
P 10350 6750
F 0 "R6" H 10420 6796 50  0000 L CNN
F 1 "1k" H 10420 6705 50  0000 L CNN
F 2 "Resistor_THT:R_Axial_DIN0207_L6.3mm_D2.5mm_P10.16mm_Horizontal" V 10280 6750 50  0001 C CNN
F 3 "~" H 10350 6750 50  0001 C CNN
	1    10350 6750
	1    0    0    -1  
$EndComp
Wire Wire Line
	10350 6900 10350 7050
Connection ~ 10350 7350
Wire Wire Line
	10150 7050 10350 7050
Connection ~ 10350 7050
Wire Wire Line
	10350 7050 10350 7350
Wire Wire Line
	9450 7050 9350 7050
Wire Wire Line
	9350 7050 9350 7250
$Comp
L power:GNDREF #PWR0104
U 1 1 5D691E85
P 9350 7450
F 0 "#PWR0104" H 9350 7200 50  0001 C CNN
F 1 "GNDREF" H 9355 7277 50  0000 C CNN
F 2 "" H 9350 7450 50  0001 C CNN
F 3 "" H 9350 7450 50  0001 C CNN
	1    9350 7450
	1    0    0    -1  
$EndComp
Wire Wire Line
	9750 7050 9850 7050
Connection ~ 9350 7050
$Comp
L Device:R R1
U 1 1 5D69E9A1
P 9000 6500
F 0 "R1" H 9070 6546 50  0000 L CNN
F 1 "100" H 9070 6455 50  0000 L CNN
F 2 "Resistor_THT:R_Axial_DIN0207_L6.3mm_D2.5mm_P10.16mm_Horizontal" V 8930 6500 50  0001 C CNN
F 3 "~" H 9000 6500 50  0001 C CNN
	1    9000 6500
	1    0    0    -1  
$EndComp
$Comp
L Device:R R2
U 1 1 5D69F66E
P 9350 6500
F 0 "R2" H 9420 6546 50  0000 L CNN
F 1 "1k" H 9420 6455 50  0000 L CNN
F 2 "Resistor_THT:R_Axial_DIN0207_L6.3mm_D2.5mm_P10.16mm_Horizontal" V 9280 6500 50  0001 C CNN
F 3 "~" H 9350 6500 50  0001 C CNN
	1    9350 6500
	1    0    0    -1  
$EndComp
Wire Wire Line
	9000 6650 9000 6850
Wire Wire Line
	9000 6850 8900 6850
Wire Wire Line
	9350 7050 8900 7050
Wire Wire Line
	9350 7050 9350 6650
Wire Wire Line
	9000 6350 9000 6100
Wire Wire Line
	9000 6100 9350 6100
Wire Wire Line
	9350 6350 9350 6100
Connection ~ 9350 6100
Wire Wire Line
	9350 6100 10350 6100
Wire Wire Line
	10350 6600 10350 6100
Connection ~ 10350 6100
Wire Wire Line
	13000 6100 13000 3700
Wire Wire Line
	10350 6100 13000 6100
Connection ~ 13000 3700
Wire Wire Line
	13000 3700 13700 3700
$Comp
L power:GNDREF #PWR0105
U 1 1 5D6C758C
P 12500 4950
F 0 "#PWR0105" H 12500 4700 50  0001 C CNN
F 1 "GNDREF" H 12505 4777 50  0000 C CNN
F 2 "" H 12500 4950 50  0001 C CNN
F 3 "" H 12500 4950 50  0001 C CNN
	1    12500 4950
	1    0    0    -1  
$EndComp
$Comp
L power:GNDREF #PWR0106
U 1 1 5D6C7B1D
P 13700 4100
F 0 "#PWR0106" H 13700 3850 50  0001 C CNN
F 1 "GNDREF" H 13705 3927 50  0000 C CNN
F 2 "" H 13700 4100 50  0001 C CNN
F 3 "" H 13700 4100 50  0001 C CNN
	1    13700 4100
	1    0    0    -1  
$EndComp
Connection ~ 13700 4100
$Comp
L Device:CP_Small C1
U 1 1 5D6CF5F5
P 11850 3900
F 0 "C1" H 11938 3946 50  0000 L CNN
F 1 "1000u/25V" H 11938 3855 50  0000 L CNN
F 2 "Capacitor_THT:CP_Radial_D10.0mm_P5.00mm" H 11850 3900 50  0001 C CNN
F 3 "~" H 11850 3900 50  0001 C CNN
	1    11850 3900
	1    0    0    -1  
$EndComp
$Comp
L Device:D_Schottky_x2_KCom_AKA D2
U 1 1 5D6D5F32
P 10250 4000
F 0 "D2" V 10250 4079 50  0000 L CNN
F 1 "D_Schottky_x2_KCom_AKA" V 10205 4079 50  0001 L CNN
F 2 "Package_TO_SOT_THT:TO-220-3_Vertical" H 10250 4000 50  0001 C CNN
F 3 "~" H 10250 4000 50  0001 C CNN
	1    10250 4000
	0    -1   -1   0   
$EndComp
Wire Wire Line
	10250 3700 9950 3700
Wire Wire Line
	9800 4400 10250 4400
Wire Wire Line
	10250 4400 10250 4300
Wire Wire Line
	9800 3150 9800 4400
Wire Wire Line
	10450 4000 10650 4000
Wire Wire Line
	10650 4000 10650 3700
Wire Wire Line
	10650 3700 10850 3700
$EndSCHEMATC
